{
  "TableName": "ticker",
  "StreamSpecification": {
    "StreamEnabled": true,
    "StreamViewType": "NEW_AND_OLD_IMAGES"
  },
  "AttributeDefinitions": [
    {
      "AttributeName": "partitionKey",
      "AttributeType": "S"
    },
    {
      "AttributeName": "sortKey",
      "AttributeType": "S"
    },
    {
      "AttributeName": "entityName",
      "AttributeType": "S"
    }
  ],
  "KeySchema": [
    {
      "AttributeName": "partitionKey",
      "KeyType": "HASH"
    },
    {
      "AttributeName": "sortKey",
      "KeyType": "RANGE"
    }
  ],
  "ProvisionedThroughput": {
    "ReadCapacityUnits": 3,
    "WriteCapacityUnits": 3
  },
  "GlobalSecondaryIndexes": [
    {
      "IndexName": "entityNameIndex",
      "KeySchema": [
        {
          "AttributeName": "entityName",
          "KeyType": "HASH"
        },
        {
          "AttributeName": "partitionKey",
          "KeyType": "RANGE"
        }
      ],
      "Projection": {
        "ProjectionType": "ALL"
      },
      "ProvisionedThroughput": {
        "ReadCapacityUnits": 3,
        "WriteCapacityUnits": 3
      }
    }
  ]
}