<?xml version="1.0" encoding="UTF-8" standalone="no"?>
<svg xmlns:dc="http://purl.org/dc/elements/1.1/" xmlns:cc="http://creativecommons.org/ns#" xmlns:rdf="http://www.w3.org/1999/02/22-rdf-syntax-ns#" xmlns:svg="http://www.w3.org/2000/svg" xmlns="http://www.w3.org/2000/svg" xmlns:sodipodi="http://sodipodi.sourceforge.net/DTD/sodipodi-0.dtd" xmlns:inkscape="http://www.inkscape.org/namespaces/inkscape" width="38.085907mm" height="38.085907mm" viewBox="0 0 38.085907 38.085907" version="1.1" id="svg4282" inkscape:version="1.0.1 (3bc2e813f5, 2020-09-07)" sodipodi:docname="icon_info.svg">
  <defs id="defs4276">
    <filter height="1.1365677" y="-0.068283834" width="1.3679469" x="-0.18397348" id="filter5033-3-5" style="color-interpolation-filters:sRGB" inkscape:collect="always">
      <feGaussianBlur id="feGaussianBlur5035-0-4" stdDeviation="0.62971388" inkscape:collect="always"/>
    </filter>
  </defs>
  <sodipodi:namedview id="base" pagecolor="#ffffff" bordercolor="#666666" borderopacity="1.0" inkscape:pageopacity="0.0" inkscape:pageshadow="2" inkscape:zoom="0.7" inkscape:cx="-150.41744" inkscape:cy="156.60646" inkscape:document-units="mm" inkscape:current-layer="layer1" inkscape:document-rotation="0" showgrid="false" fit-margin-top="0" fit-margin-left="0" fit-margin-right="0" fit-margin-bottom="0" inkscape:window-width="1438" inkscape:window-height="1040" inkscape:window-x="258" inkscape:window-y="373" inkscape:window-maximized="0"/>
  <metadata id="metadata4279">
    <rdf:RDF>
      <cc:Work rdf:about="">
        <dc:format>image/svg+xml</dc:format>
        <dc:type rdf:resource="http://purl.org/dc/dcmitype/StillImage"/>
        <dc:title/>
      </cc:Work>
    </rdf:RDF>
  </metadata>
  <g inkscape:label="Calque 1" inkscape:groupmode="layer" id="layer1" transform="translate(-202.77462,-93.161524)">
    <g transform="translate(-134.0667,380.38209)" id="g5170">
      <circle r="19.042953" cy="-268.17761" cx="355.88428" id="circle5054" style="opacity:1;vector-effect:none;fill:#2323ff;fill-opacity:1;fill-rule:nonzero;stroke:none;stroke-width:0.529167;stroke-linecap:butt;stroke-linejoin:miter;stroke-miterlimit:4;stroke-dasharray:none;stroke-dashoffset:0;stroke-opacity:1"/>
      <circle style="opacity:1;vector-effect:none;fill:#ffffff;fill-opacity:1;fill-rule:nonzero;stroke:none;stroke-width:0.447471;stroke-linecap:butt;stroke-linejoin:miter;stroke-miterlimit:4;stroke-dasharray:none;stroke-dashoffset:0;stroke-opacity:1" id="circle5056" cx="355.88428" cy="-268.17761" r="16.102989"/>
      <circle r="14.633007" cy="-268.17761" cx="355.88428" id="circle5058" style="opacity:1;vector-effect:none;fill:#62e9ff;fill-opacity:1;fill-rule:nonzero;stroke:none;stroke-width:0.406623;stroke-linecap:butt;stroke-linejoin:miter;stroke-miterlimit:4;stroke-dasharray:none;stroke-dashoffset:0;stroke-opacity:1"/>
      <path sodipodi:nodetypes="ccccccccccccccccccccccccccccccccccccc" inkscape:connector-curvature="0" id="path5103" d="m 356.35392,-283.40494 c -0.19025,8.7e-4 -0.37879,0.0359 -0.55664,0.10351 -1.23451,0.12165 -2.39855,0.55536 -3.32617,1.31836 -0.0105,0.008 -0.0209,0.0155 -0.0312,0.0234 -1.0376,0.87513 -1.7627,2.05356 -1.94141,3.38672 -0.17933,1.33796 0.28259,2.65698 1.16016,3.61523 9.9e-4,10e-4 9.6e-4,0.003 0.002,0.004 0.0178,0.0193 0.036,0.0382 0.0547,0.0566 6.4e-4,6.5e-4 0.001,10e-4 0.002,0.002 0.0742,0.0762 0.18294,0.10499 0.26172,0.17578 l -3.10351,0.16602 c -0.76146,0.0409 -1.3863,0.61735 -1.48828,1.37305 l -0.44922,3.35742 c -0.12212,0.91563 0.56021,1.7418 1.48242,1.79492 l 1.32031,0.0762 c 0.065,0.004 0.19041,0.0301 0.27734,0.041 l -1.08398,8.08789 c -0.058,0.004 -0.11821,0.009 -0.17578,0.0137 l -1.31641,0.0977 c -0.74941,0.0552 -1.35748,0.62823 -1.45703,1.37304 l -0.45898,3.42188 c -0.12782,0.95247 0.61321,1.79923 1.57422,1.79883 h 11.90429 c 0.79489,-6.7e-4 1.46678,-0.5891 1.57227,-1.37696 l 0.16406,-1.22461 0.29688,-2.20898 c 0.12192,-0.90984 -0.5509,-1.73317 -1.4668,-1.79492 l -1.05274,-0.0703 1.66797,-12.44921 c 0.0669,-0.49841 -0.10623,-0.99905 -0.46679,-1.34961 l -0.92383,-0.89649 c 0.20599,-0.13743 0.4476,-0.21244 0.63672,-0.375 l 0.002,-0.002 c 1.03897,-0.89348 1.76335,-2.08869 1.94336,-3.43164 0.18016,-1.34399 -0.30446,-2.66775 -1.22656,-3.60547 -1.00235,-1.04269 -2.38862,-1.50195 -3.79688,-1.50195 z" style="color:#000000;font-style:normal;font-variant:normal;font-weight:normal;font-stretch:normal;font-size:35.9845px;line-height:1.25;font-family:sans-serif;font-variant-ligatures:normal;font-variant-position:normal;font-variant-caps:normal;font-variant-numeric:normal;font-variant-alternates:normal;font-feature-settings:normal;text-indent:0;text-align:start;text-decoration:none;text-decoration-line:none;text-decoration-style:solid;text-decoration-color:#000000;letter-spacing:0px;word-spacing:0px;text-transform:none;writing-mode:lr-tb;direction:ltr;text-orientation:mixed;dominant-baseline:auto;baseline-shift:baseline;text-anchor:start;white-space:normal;shape-padding:0;clip-rule:nonzero;display:inline;overflow:visible;visibility:visible;opacity:0.45;isolation:auto;mix-blend-mode:normal;color-interpolation:sRGB;color-interpolation-filters:linearRGB;solid-color:#000000;solid-opacity:1;vector-effect:none;fill:#000000;fill-opacity:1;fill-rule:nonzero;stroke:none;stroke-width:2.85299;stroke-linecap:round;stroke-linejoin:round;stroke-miterlimit:4;stroke-dasharray:none;stroke-dashoffset:0;stroke-opacity:1;paint-order:fill markers stroke;filter:url(#filter5033-3-5);color-rendering:auto;image-rendering:auto;shape-rendering:auto;text-rendering:auto;enable-background:accumulate"/>
      <path style="color:#000000;font-style:normal;font-variant:normal;font-weight:normal;font-stretch:normal;font-size:35.9845px;line-height:1.25;font-family:sans-serif;font-variant-ligatures:normal;font-variant-position:normal;font-variant-caps:normal;font-variant-numeric:normal;font-variant-alternates:normal;font-feature-settings:normal;text-indent:0;text-align:start;text-decoration:none;text-decoration-line:none;text-decoration-style:solid;text-decoration-color:#000000;letter-spacing:0px;word-spacing:0px;text-transform:none;writing-mode:lr-tb;direction:ltr;text-orientation:mixed;dominant-baseline:auto;baseline-shift:baseline;text-anchor:start;white-space:normal;shape-padding:0;clip-rule:nonzero;display:inline;overflow:visible;visibility:visible;opacity:1;isolation:auto;mix-blend-mode:normal;color-interpolation:sRGB;color-interpolation-filters:linearRGB;solid-color:#000000;solid-opacity:1;vector-effect:none;fill:#f1f1f1;fill-opacity:1;fill-rule:nonzero;stroke:none;stroke-width:3.175;stroke-linecap:butt;stroke-linejoin:round;stroke-miterlimit:4;stroke-dasharray:none;stroke-dashoffset:0;stroke-opacity:1;color-rendering:auto;image-rendering:auto;shape-rendering:auto;text-rendering:auto;enable-background:accumulate" d="m 359.047,-285.05859 c -0.19025,8.7e-4 -0.37879,0.0359 -0.55664,0.10351 -1.23451,0.12165 -2.39855,0.55536 -3.32617,1.31836 -0.0105,0.008 -0.0209,0.0155 -0.0312,0.0234 -1.0376,0.87513 -1.7627,2.05356 -1.94141,3.38672 -0.17933,1.33796 0.28259,2.65698 1.16016,3.61523 9.9e-4,0.001 9.6e-4,0.003 0.002,0.004 0.0178,0.0193 0.036,0.0382 0.0547,0.0566 6.4e-4,6.5e-4 0.001,10e-4 0.002,0.002 0.0742,0.0762 0.18294,0.10499 0.26172,0.17578 l -3.10351,0.16602 c -0.76146,0.0409 -1.3863,0.61735 -1.48828,1.37305 l -0.44922,3.35742 c -0.12212,0.91563 0.56021,1.7418 1.48242,1.79492 l 1.32031,0.0762 c 0.065,0.004 0.19041,0.0301 0.27734,0.041 l -1.08398,8.08789 c -0.058,0.004 -0.11821,0.009 -0.17578,0.0137 l -1.31641,0.0977 c -0.74941,0.0552 -1.35748,0.62823 -1.45703,1.37304 l -0.45898,3.42188 c -0.12782,0.95247 0.61321,1.79923 1.57422,1.79883 h 11.90429 c 0.79489,-6.7e-4 1.46678,-0.5891 1.57227,-1.37696 l 0.16406,-1.22461 0.29688,-2.20898 c 0.12192,-0.90984 -0.5509,-1.73317 -1.4668,-1.79492 l -1.05274,-0.0703 1.66797,-12.44921 c 0.0669,-0.49841 -0.10623,-0.99905 -0.46679,-1.34961 l -0.92383,-0.89649 c 0.20599,-0.13743 0.4476,-0.21244 0.63672,-0.375 l 0.002,-0.002 c 1.03897,-0.89348 1.76335,-2.08869 1.94336,-3.43164 0.18016,-1.34399 -0.30446,-2.66775 -1.22656,-3.60547 -1.00235,-1.04269 -2.38862,-1.50195 -3.79688,-1.50195 z" id="path5099" inkscape:connector-curvature="0" sodipodi:nodetypes="ccccccccccccccccccccccccccccccccccccc"/>
      <path style="color:#000000;font-style:normal;font-variant:normal;font-weight:normal;font-stretch:normal;font-size:35.9845px;line-height:1.25;font-family:sans-serif;font-variant-ligatures:normal;font-variant-position:normal;font-variant-caps:normal;font-variant-numeric:normal;font-variant-alternates:normal;font-feature-settings:normal;text-indent:0;text-align:start;text-decoration:none;text-decoration-line:none;text-decoration-style:solid;text-decoration-color:#000000;letter-spacing:0px;word-spacing:0px;text-transform:none;writing-mode:lr-tb;direction:ltr;text-orientation:mixed;dominant-baseline:auto;baseline-shift:baseline;text-anchor:start;white-space:normal;shape-padding:0;clip-rule:nonzero;display:inline;overflow:visible;visibility:visible;opacity:1;isolation:auto;mix-blend-mode:normal;color-interpolation:sRGB;color-interpolation-filters:linearRGB;solid-color:#000000;solid-opacity:1;vector-effect:none;fill:#0058b9;fill-opacity:1;fill-rule:nonzero;stroke:#000000;stroke-width:0.529167;stroke-linecap:round;stroke-linejoin:round;stroke-miterlimit:4;stroke-dasharray:none;stroke-dashoffset:0;stroke-opacity:1;paint-order:normal;color-rendering:auto;image-rendering:auto;shape-rendering:auto;text-rendering:auto;enable-background:accumulate" d="m 359.04655,-283.46997 c -1.02757,0 -2.09315,0.41488 -2.87668,1.06025 l -0.007,0.005 -0.007,0.005 c -0.7674,0.64724 -1.27387,1.51304 -1.39071,2.38465 -0.11459,0.85494 0.17445,1.69781 0.75821,2.33401 l 0.011,0.0127 0.0112,0.0109 c 0.61544,0.63252 1.56519,1.03311 2.58343,1.03311 1.058,0 2.17079,-0.41762 2.96191,-1.09825 0.77737,-0.66793 1.287,-1.54809 1.40641,-2.43894 0.11321,-0.84456 -0.18776,-1.68275 -0.78933,-2.29057 -0.62249,-0.6517 -1.62189,-1.01863 -2.66128,-1.01863 z m 1.25043,8.38249 -8.64344,0.46499 -0.44988,3.35625 1.32232,0.076 c 0.2732,0.0158 0.60444,0.0613 0.98207,0.14476 l 0.0164,0.004 0.0185,0.004 c 0.33305,0.0652 0.50703,0.14329 0.53949,0.15921 0.12105,0.0831 0.1958,0.15968 0.25906,0.28403 0.0633,0.12435 0.0819,0.20791 0.061,0.36366 l -1.32854,9.91135 c -0.0286,0.21368 -0.0795,0.28055 -0.13705,0.3033 -0.0575,0.0227 -0.22581,0.0551 -0.45805,0.0709 h -0.002 -0.002 c -0.30804,0.0218 -0.61137,0.0433 -0.9069,0.0651 l -1.31607,0.0977 -0.45886,3.4232 h 11.90392 l 0.16418,-1.22491 0.29612,-2.20915 c -0.90802,-0.076 -1.71333,-0.0524 -2.50407,-0.35757 -0.16683,-0.0767 -0.19763,-0.15352 -0.16943,-0.36353 l 1.82208,-13.59329 z" id="text5052" inkscape:connector-curvature="0" sodipodi:nodetypes="ccccccccscccccccccccccccccccccccccccccc"/>
    </g>
  </g>
</svg>