<?xml version="1.0" encoding="UTF-8"?>
<svg xmlns:rdf="http://www.w3.org/1999/02/22-rdf-syntax-ns#" xmlns="http://www.w3.org/2000/svg" xmlns:cc="http://creativecommons.org/ns#" xmlns:dc="http://purl.org/dc/elements/1.1/" xmlns:svg="http://www.w3.org/2000/svg" xmlns:inkscape="http://www.inkscape.org/namespaces/inkscape" xmlns:sodipodi="http://sodipodi.sourceforge.net/DTD/sodipodi-0.dtd" xmlns:ns1="http://sozi.baierouge.fr" xmlns:xlink="http://www.w3.org/1999/xlink" id="svg44174" viewBox="0 0 1435.3 808.64" version="1.1">
  <g id="layer1" transform="translate(603.78 -275.15)">
    <g id="g44198" transform="matrix(.73323 0 0 .73323 -161.07 289.13)">
      <path id="path13105" d="m1301.8-19.066h-638.93c-28.811 0-52.006 23.195-52.006 52.006v617.39l-330.93 0.4339-1.8183-133.55-310.92 222.44 310.92 222.44 1.8183-133.55 330.93 0.4339v202.82c0 28.811 23.195 52.006 52.006 52.006h638.93c28.811 0 52.006-23.195 52.006-52.006v-998.84c0-28.811-23.195-52.006-52.006-52.006z" fill="#3979b1"/>
      <path id="rect39789" d="m-551.77 1083.8h638.93c28.811 0 52.006-23.195 52.006-52.006v-617.39l330.93-0.4339 1.8183 133.55 310.92-222.44-310.92-222.44-1.8183 133.55-330.93-0.4339v-202.82c0-28.811-23.195-52.006-52.006-52.006h-638.93c-28.811 0-52.006 23.195-52.006 52.006v998.84c0 28.811 23.195 52.006 52.006 52.006z" fill="#d21920"/>
      <path id="path13107" d="m610.83 650.33-330.93 0.4339-1.8183-133.55-310.92 222.44 310.92 222.44 1.8183-133.55 330.93 0.4339" fill="#3979b1"/>
    </g>
  </g>
  <metadata>
    <rdf:RDF>
      <cc:Work>
        <dc:format>image/svg+xml</dc:format>
        <dc:type rdf:resource="http://purl.org/dc/dcmitype/StillImage"/>
        <cc:license rdf:resource="http://creativecommons.org/licenses/publicdomain/"/>
        <dc:publisher>
          <cc:Agent rdf:about="http://openclipart.org/">
            <dc:title>Openclipart</dc:title>
          </cc:Agent>
        </dc:publisher>
        <dc:title>DBB // Arrow to Arrow</dc:title>
        <dc:date>2013-09-27T20:09:20</dc:date>
        <dc:description>Arrow to Arrow - Loops one to the other - designbybeck</dc:description>
        <dc:source>https://openclipart.org/detail/183929/arrow-to-arrow-by-designbybeck-183929</dc:source>
        <dc:creator>
          <cc:Agent>
            <dc:title>designbybeck</dc:title>
          </cc:Agent>
        </dc:creator>
        <dc:subject>
          <rdf:Bag>
            <rdf:li>Arrow</rdf:li>
            <rdf:li>Blue</rdf:li>
            <rdf:li>DBB</rdf:li>
            <rdf:li>Flowchart</rdf:li>
            <rdf:li>Red</rdf:li>
            <rdf:li>design by beck</rdf:li>
          </rdf:Bag>
        </dc:subject>
      </cc:Work>
      <cc:License rdf:about="http://creativecommons.org/licenses/publicdomain/">
        <cc:permits rdf:resource="http://creativecommons.org/ns#Reproduction"/>
        <cc:permits rdf:resource="http://creativecommons.org/ns#Distribution"/>
        <cc:permits rdf:resource="http://creativecommons.org/ns#DerivativeWorks"/>
      </cc:License>
    </rdf:RDF>
  </metadata>
</svg>